Retrieve university entrance exam score | Hai's blog
…
Because the API sent me the province code instead of province name, I will need an extra step to get the province.

library(rvest)
province_code <- read_html("https://diemthi.vnanet.vn/Home/") %>% 
  html_elements("#listCity") %>% 
  html_text2() %>% 
  str_replace_all(pattern = "(\\d{2})", "\n\\1, ") %>% 
  read_csv(skip = 1, col_names = c('province_code', 'province')) %>% 
  mutate(province = stringi::stri_trans_general(province, "Latin-ASCII")) %>% 
  mutate(province = str_remove(province, 'So GDDT '),
         province = str_remove(province, "So GD KHCN "))

province_code

## # A tibble: 64 × 2
##    province_code province       
##    <chr>         <chr>          
##  1 01            Ha Noi         
##  2 02            TP. Ho Chi Minh
##  3 03            Hai Phong      
##  4 04            Da Nang        
##  5 05            Ha Giang       
##  6 06            Cao Bang       
##  7 07            Lai Chau       
##  8 08            Lao Cai        
##  9 09            Tuyen Quang    
## 10 10            Lang Son       
## # … with 54 more rows
…
